%YAML 1.1
%TAG !u! tag:unity3d.com,2011:
--- !u!114 &11400000
MonoBehaviour:
  m_ObjectHideFlags: 0
  m_CorrespondingSourceObject: {fileID: 0}
  m_PrefabInstance: {fileID: 0}
  m_PrefabAsset: {fileID: 0}
  m_GameObject: {fileID: 0}
  m_Enabled: 1
  m_EditorHideFlags: 0
  m_Script: {fileID: 11500000, guid: a4f8eaa0ba59ba9408b733118833f673, type: 3}
  m_Name: GenericAttach2
  m_EditorClassIdentifier: 
  AudioClip: {fileID: 8300000, guid: f6c40f563a2454fb18761d1a63b20119, type: 3}
  Volume: 0.5
  Pitch: 1
  Delay: 0
