%YAML 1.1
%TAG !u! tag:unity3d.com,2011:
--- !u!114 &11400000
MonoBehaviour:
  m_ObjectHideFlags: 0
  m_CorrespondingSourceObject: {fileID: 0}
  m_PrefabInstance: {fileID: 0}
  m_PrefabAsset: {fileID: 0}
  m_GameObject: {fileID: 0}
  m_Enabled: 1
  m_EditorHideFlags: 0
  m_Script: {fileID: 11500000, guid: a4f8eaa0ba59ba9408b733118833f673, type: 3}
  m_Name: RadiatorHit3
  m_EditorClassIdentifier: 
  AudioClip: {fileID: 8300000, guid: b30dca9d588b8469894b875b34adbf2d, type: 3}
  Volume: 0.325
  Pitch: 1
  Delay: 0
