%YAML 1.1
%TAG !u! tag:unity3d.com,2011:
--- !u!114 &11400000
MonoBehaviour:
  m_ObjectHideFlags: 0
  m_CorrespondingSourceObject: {fileID: 0}
  m_PrefabInstance: {fileID: 0}
  m_PrefabAsset: {fileID: 0}
  m_GameObject: {fileID: 0}
  m_Enabled: 1
  m_EditorHideFlags: 0
  m_Script: {fileID: 11500000, guid: a4f8eaa0ba59ba9408b733118833f673, type: 3}
  m_Name: SuitcaseCollide1
  m_EditorClassIdentifier: 
  AudioClip: {fileID: 8300000, guid: 1ba4420e363ad4ce3a04a8590229bb04, type: 3}
  Volume: 0.325
  Pitch: 1.5
  Delay: 0
