%YAML 1.1
%TAG !u! tag:unity3d.com,2011:
--- !u!114 &11400000
MonoBehaviour:
  m_ObjectHideFlags: 0
  m_CorrespondingSourceObject: {fileID: 0}
  m_PrefabInstance: {fileID: 0}
  m_PrefabAsset: {fileID: 0}
  m_GameObject: {fileID: 0}
  m_Enabled: 1
  m_EditorHideFlags: 0
  m_Script: {fileID: 11500000, guid: a4f8eaa0ba59ba9408b733118833f673, type: 3}
  m_Name: SuitcaseHit2
  m_EditorClassIdentifier: 
  AudioClip: {fileID: 8300000, guid: 9a3e98bbe5afa4aacbe3b867b37d5440, type: 3}
  Volume: 0.325
  Pitch: 1
  Delay: 0
